{
  "streams": [
    {
      "tap_stream_id": "iiko",
      "replication_method": "FULL_TABLE",
      "schema": {
        "properties": {
          "modified": {
            "format": "date-time",
            "type": [
              "string",
              "null"
            ]
          },
          "request": {
            "type": [
              "string",
              "null"
            ]
          },
          "response": {
            "properties": {},
            "type": [
              "object",
              "null"
            ]
          }
        },
        "type": "object"
      },
      "stream": "iiko",
      "metadata": [
        {
          "breadcrumb": [
            "properties",
            "modified"
          ],
          "metadata": {
            "inclusion": "available",
            "selected": true
          }
        },
        {
          "breadcrumb": [
            "properties",
            "request"
          ],
          "metadata": {
            "inclusion": "available",
            "selected": true
          }
        },
        {
          "breadcrumb": [
            "properties",
            "response"
          ],
          "metadata": {
            "inclusion": "available",
            "selected": true
          }
        },
        {
          "breadcrumb": [],
          "metadata": {
            "inclusion": "available",
            "selected": true
          }
        }
      ],
      "selected": true
    }
  ]
}