{
  "account_name": "nalexdatalake",
  "account_key": "UXEBymjOafjIiUIhTdaVX3MSF8B6cpe6Zf+vabtqu2cxHNbJcwTW0ShBuzkj2vwbfAIoVxgCUFB9NKSgb6yCRA==",
  "start_date": "2017-01-01T00:00:00Z",
  "container_name": "cont",
  "do_timestamp_file": true
}